\relax 
\providecommand\hyper@newdestlabel[2]{}
\providecommand\HyperFirstAtBeginDocument{\AtBeginDocument}
\HyperFirstAtBeginDocument{\ifx\hyper@anchor\@undefined
\global\let\oldcontentsline\contentsline
\gdef\contentsline#1#2#3#4{\oldcontentsline{#1}{#2}{#3}}
\global\let\oldnewlabel\newlabel
\gdef\newlabel#1#2{\newlabelxx{#1}#2}
\gdef\newlabelxx#1#2#3#4#5#6{\oldnewlabel{#1}{{#2}{#3}}}
\AtEndDocument{\ifx\hyper@anchor\@undefined
\let\contentsline\oldcontentsline
\let\newlabel\oldnewlabel
\fi}
\fi}
\global\let\hyper@last\relax 
\gdef\HyperFirstAtBeginDocument#1{#1}
\providecommand\HyField@AuxAddToFields[1]{}
\providecommand\HyField@AuxAddToCoFields[2]{}
\newlabel{eq:poisson}{{0.1}{1}{}{equation.0.1}{}}
\@writefile{toc}{\contentsline {section}{\numberline {1}Back-scaling}{1}{section.1}}
\newlabel{eq:first-transfer}{{1.1}{1}{Back-scaling}{equation.1.1}{}}
\newlabel{eq:potential}{{1.2}{1}{Back-scaling}{equation.1.2}{}}
\newlabel{eq:Poisson}{{1.3}{1}{Back-scaling}{equation.1.3}{}}
\@writefile{toc}{\contentsline {section}{\numberline {2}The ``Villa and Rampf plus'' (VR+) kernel}{1}{section.2}}
\newlabel{eq:convolution}{{2.1}{1}{The ``Villa and Rampf plus'' (VR+) kernel}{equation.2.1}{}}
\newlabel{eq:second-order-stuff}{{2.2}{1}{The ``Villa and Rampf plus'' (VR+) kernel}{equation.2.2}{}}
\newlabel{eq:kernel}{{2.3}{1}{The ``Villa and Rampf plus'' (VR+) kernel}{equation.2.3}{}}
\providecommand*\caption@xref[2]{\@setref\relax\@undefined{#1}}
\newlabel{fig:plot}{{\caption@xref {fig:plot}{ on input line 95}}{2}{The ``Villa and Rampf plus'' (VR+) kernel}{figure.caption.1}{}}
\newlabel{eq:VR}{{2.4}{2}{The ``Villa and Rampf plus'' (VR+) kernel}{equation.2.4}{}}
\newlabel{eq:gamma_plus}{{2.5}{2}{The ``Villa and Rampf plus'' (VR+) kernel}{equation.2.5}{}}
\@writefile{toc}{\contentsline {section}{\numberline {3}Let see now how it translates in real space}{3}{section.3}}
\newlabel{eq:radiation_term}{{3.1}{3}{Let see now how it translates in real space}{equation.3.1}{}}
\newlabel{eq:identity4}{{3.2}{3}{Let see now how it translates in real space}{equation.3.2}{}}
\newlabel{eq:radiation_real}{{3.3}{3}{Let see now how it translates in real space}{equation.3.3}{}}
\newlabel{eq:res}{{3.4}{3}{Let see now how it translates in real space}{equation.3.4}{}}
\@writefile{toc}{\contentsline {section}{\numberline {4}Full real space expression}{3}{section.4}}
\newlabel{eq:fuvw}{{4.1}{3}{Full real space expression}{equation.4.1}{}}
\newlabel{eq:3.5}{{4.3}{4}{Full real space expression}{equation.4.3}{}}
\newlabel{eq:5.54}{{4.4}{4}{Full real space expression}{equation.4.4}{}}
\newlabel{eq:theta}{{4.5}{4}{Full real space expression}{equation.4.5}{}}
